{
    "KPlugin": {
        "Description": "Customize the GRUB2 bootloader",
        "Description[ca@valencia]": "Personalitza el gestor d'arrancada Grub2",
        "Description[ca]": "Personalitza el gestor d'arrencada Grub2",
        "Description[es]": "Personalizar el cargador de arranque GRUB2",
        "Description[eu]": "Egokitu GRUB2 abio-zamatzailea zure eran",
        "Description[fr]": "Personnaliser le chargeur de démarrage « GRUB2 »",
        "Description[nl]": "De GRUB2-bootloader aanpassen",
        "Description[pt]": "Personalizar o gestor de arranque GRUB2",
        "Description[sk]": "Prispôsobiť bootloader GRUB2",
        "Description[sl]": "Prilagodi inicialni nalagalnik GRUB2",
        "Description[tr]": "GRUB2 önyükleyiciyi özelleştir",
        "Description[uk]": "Налаштування завантажувача GRUB2",
        "Description[x-test]": "xxCustomize the GRUB2 bootloaderxx",
        "Icon": "system-reboot",
        "Name": "GRUB2 Bootloader",
        "Name[ca@valencia]": "Gestor d'arrancada Grub2",
        "Name[ca]": "Gestor d'arrencada Grub2",
        "Name[es]": "Cargador de arranque GRUB2",
        "Name[eu]": "GRUB2 abio-zamatzailea",
        "Name[fr]": "Chargeur de démarrage « GRUB2 »",
        "Name[nl]": "GRUB2 bootloader",
        "Name[pt]": "Gestor de Arranque GRUB2",
        "Name[sk]": "Bootloader GRUB2",
        "Name[sl]": "Inicialni nalagalnik GRUB2",
        "Name[tr]": "GRUB2 Önyükleyici",
        "Name[uk]": "Завантажувач GRUB2",
        "Name[x-test]": "xxGRUB2 Bootloaderxx"
    },
    "X-KDE-Keywords": "grub,boot,menu,entries,default,timeout,password,color,splash,image,bootloader",
    "X-KDE-Keywords[ast]": "grub,arrinque,arrincar,menú,entrada,entraes,contraseña,color,aspeutu,imaxe,xestor d'arrinque",
    "X-KDE-Keywords[bs]": "grub,boot,meni,elementi,default,istek,lozinka,boja,poruka,slika,bootloader",
    "X-KDE-Keywords[ca@valencia]": "grub,arrancada,menú,entrades,predeterminat,temps d'expiració,contrasenya,color,presentació,imatge,carregador d'arrancada",
    "X-KDE-Keywords[ca]": "grub,arrencada,menú,entrades,omissió,temps d'expiració,contrasenya,color,presentació,imatge,carregador d'arrencada",
    "X-KDE-Keywords[cs]": "grub,boot,nabídka,položky,výchozí,limit,heslo,barva,start,obrázek,bootloader",
    "X-KDE-Keywords[da]": "grub,boot,menu,indgange,standard,timeout,tidsudløb,adgangskode,farve,splash,billed,bootloader",
    "X-KDE-Keywords[de]": "Menü,Einträge,Standard,Zeitüberschreitung,Passwort,Farbe",
    "X-KDE-Keywords[el]": "grub,boot,menu,entries,default,timeout,password,color,splash,image,bootloader",
    "X-KDE-Keywords[en_GB]": "grub,boot,menu,entries,default,timeout,password,colour,splash,image,bootloader",
    "X-KDE-Keywords[es]": "grub,arranque,menú,entradas,predeterminado,tiempo de espera,contraseña,color,pantalla de inicio,imagen,cargador de arranque",
    "X-KDE-Keywords[et]": "grub,alglaadimine,buutimine,kirjed,vaikimisi,aegumine,parool,värv,tiitelkuva,pilt,alglaadur",
    "X-KDE-Keywords[eu]": "grub,boot,abio,abiatu,menua,sarrerak,lehenetsia,denbora-muga,pasahitza,kolorea,plasta,irudia,abio-zamatzailea",
    "X-KDE-Keywords[fi]": "grub,boot,menu,entries,default,timeout,password,color,splash,image,bootloader,valikko,valinnat,oletus,aikakatkaisu,salasana,väri,käynnistyslataaja,käynnistyslatain",
    "X-KDE-Keywords[fr]": "grub, amorçage, menu, entrées, par défaut, temps imparti, mot de passe, couleur, écran d'accueil, image, chargeur d'amorçage",
    "X-KDE-Keywords[ga]": "grub,tosaigh,tosú,roghchlár,iontrálacha,réamhshocrú,teorainn ama,focal faire,dath,splancscáileán,íomhá,luchtóir tosaithe",
    "X-KDE-Keywords[gl]": "grub,arranque,menú,entradas,de maneira predeterminada,tempo de espera,contrasinal,cor,pantalla,imaxe,cargador de arranque",
    "X-KDE-Keywords[hu]": "grub,betöltés,menü,bejegyzések,alapértelmezett,időtúllépés,jelszó,szín,indítóképernyő,kép,rendszerbetöltő",
    "X-KDE-Keywords[it]": "grub,boot,menu,voci,predefinito,scadenza,password,colore,splash,immagine,bootloader",
    "X-KDE-Keywords[ka]": "grub,boot,menu,entries,default,timeout,password,color,splash,image,bootloader",
    "X-KDE-Keywords[ko]": "grub,boot,menu,entries,default,timeout,password,color,splash,image,bootloader,부트,부팅,메뉴,항목,기본,시간,암호,부트로더",
    "X-KDE-Keywords[lt]": "grub,įkėlimas,meniu,Įrašai,numatyta,laikas,slaptažodis,spalva,splash,atvaizdis,paleidimas",
    "X-KDE-Keywords[mr]": "ग्रब, बूट, मेन्यू, नोंदी, मूलभूत, टाइमआउट, गुप्तशब्द, रंग, स्प्लॅश, प्रतिमा, बूटलोडर",
    "X-KDE-Keywords[nb]": "grub,oppstart,meny,oppføringer,standard,tidsavbrudd,passord,farge,velkomst,bilde,oppstartslaster",
    "X-KDE-Keywords[nds]": "grub,systeemstart,menü,indrääg,standard,tietafloop,passwoort,klöör,start,bild,boot,bootloader",
    "X-KDE-Keywords[nl]": "grub,boot,menu,items,standaard,timeout,wachtwoord,kleur,splash,afbeelding,bootloader",
    "X-KDE-Keywords[nn]": "grub,boot,oppstart,meny,oppføringar,standard,tidsavbrot,passord,fargar,velkomstbilete,oppstartsbilete,oppstartslastar",
    "X-KDE-Keywords[pl]": "grub,uruchamianie,menu,wpisy,domyślne,czas oczekiwania,hasło,kolor,ekran powitalny,obraz,bootloader",
    "X-KDE-Keywords[pt]": "grub,arranque,menu,itens,predefinido,tempo-limite,senha,cor,ecrã inicial,imagem,gestor de arranque",
    "X-KDE-Keywords[pt_BR]": "grub,inicialização,menu,entradas,padrão,tempo de espera,senha,boot,cor,splash,imagem,carregador de inicialização",
    "X-KDE-Keywords[ro]": "grub,încărcare,demarare,boot,meniu,implicit,temporizare,parolă,culori,imagine,încărcător",
    "X-KDE-Keywords[ru]": "grub,boot,menu,entries,default,timeout,password,color,splash,image,bootloader,загрузка,загрузчик,пароль,меню,ядра,образ,приветствие,цвета,время ожидания",
    "X-KDE-Keywords[sk]": "grub,boot,ponuka,položky,predvolené,timeout,heslo,farba,splash,obrázok,zavádzač",
    "X-KDE-Keywords[sl]": "grub,zagon,meni,vnosi,privzeto,časovna omejitev,geslo,barva,pozdravni zaslon,slika,zagonski nalagalnik",
    "X-KDE-Keywords[sv]": "grub,start,meny,alternativ,förval,tidsgräns,lösenord,färg,startskärm,bild,startprogram",
    "X-KDE-Keywords[tr]": "grub,önyükleme,menü,girdiler,öntanımlı,zaman aşımı,parola,renk,açılış,görüntüsü,ön yükleyici",
    "X-KDE-Keywords[uk]": "grub,boot,menu,entries,default,timeout,password,color,splash,image,bootloader,завантаження,меню,записи,типовий,час очікування,тайм-аут,пароль,паролі,колір,кольори,вітання,вікно,зображення,завантажувач",
    "X-KDE-Keywords[x-test]": "xxgrubxx,xxbootxx,xxmenuxx,xxentriesxx,xxdefaultxx,xxtimeoutxx,xxpasswordxx,xxcolorxx,xxsplashxx,xximagexx,xxbootloaderxx",
    "X-KDE-Keywords[zh_CN]": "grub,boot,menu,entries,default,timeout,password,color,splash,image,bootloader,启动,菜单,默认,超时,密码,启动图,启动项,颜色,图像,引导程序",
    "X-KDE-Keywords[zh_TW]": "grub,boot,menu,entries,default,timeout,password,color,splash,image,bootloader",
    "X-KDE-ParentApp": "kcontrol",
    "X-KDE-System-Settings-Parent-Category": "session"
}
